{
    "urls": [
        {
            "url": "https://agit.ai/txcgb/TVBox/raw/branch/master/wpro",
            "name": "🌈wpro🌈"
        },
        {
            "url": "https://agit.ai/txcgb/TVBox/raw/branch/master/mi.json",
            "name": "🌈mi🌈"
        },
        {
            "url": "https://agit.ai/txcgb/66666/raw/branch/master/00/000.m3u8",
            "name": "🌈66666🌈"
        },
        {
            "url": "https://agit.ai/txcgb/tvbox2/raw/branch/master/jian.json",
            "name": "🌈Jian🌈"
        },
        {
            "url": "https://ghproxy.com/https://raw.githubusercontent.com/AndroidSoftwares/box/main/box.json",
            "name": "🌈box🌈"
        },
        {
            "url": "http://9xi4o.tk/0725.json",
            "name": "🌏微信公众号🌈星河科技园🌈"
        },
        {
            "url": "http://52bsj.vip:98/1314",
            "name": "📡电视直播🏪专用口 "
        },
        {
            "url": "https://xn--nlro93c.live/%E5%A5%BD%E9%AA%9A ",
            "name": "🆔白大佬"
        },
        {
            "url": "https://白嫖.live/白嫖",
            "name": "💮唐三♎️"
        },
        {
            "url": "https://tvbox.cainisi.cf",
            "name": "🦐菜妮丝"
        },
        {
            "url": "http://52bsj.vip:81/api/v3/file/get/46060/Tv box源2.txt?sign=yI8sCYT8pei-pxp1_xwLjWOfepQ9b7c1y6Q_QD_0RY4=:0",
            "name": "🐉兽爪"
        },
        {
            "url": "http://www.dmtv.ml/mao/single.json",
            "name": "🐧乱世"
        },
        {
            "url": "http://cai999.tk/fty ",
            "name": "🛀🏻菜鸟99"
        },
        {
            "url": "https://agit.ai/hu/hcr/raw/commit/133d3bc995d54288b45e3ec33936841d55193905/%e5%a4%a7%e5%a4%a7%e8%81%aa.txt",
            "name": "🏩星河网络"
        },
        {
            "url": "https://raw.fastgit.org/leevi0709/duo/main/v.json",
            "name": "🌹多多家庭"
        },
        {
            "url": "https://agit.ai/hu/hcr/raw/branch/master/py3.txt",
            "name": "🥞PY最新大全"
        },
        {
            "url": "https://卧槽.live/好骚",
            "name": "🎵小白接口"
        },
        {
            "url": "https://raw.iqiq.io/liu673cn/box/main/m.json",
            "name": "🍯斗罗大陆"
        },
        {
            "url": "https://agit.ai/hu/hcr/raw/branch/master/haoh.txt",
            "name": "🦊四大网盘大全集"
        },
        {
            "url": "https://cdn.jsdelivr.net/gh/vpei/Free-TVUrl-Merge@main/out/tvbox.txt",
            "name": "🌏最全接口"
        },
        {
            "url": "https://agit.ai/hu/hcr/raw/commit/7412d685dc62f3a8996a0f0c7f8070d4395fe908/%e5%a4%a7%e8%81%aa%e6%98%8e.txt ",
            "name": "🌈N接口"
        },
        {
            "url": "https://agit.ai/nbwzlyd/xiaopingguo/raw/branch/master/xiaopingguo/xiaopingguo.json",
            "name": "🍅小苹果"
        },
        {
            "url": "https://agit.ai/Yoursmile7/TVBox/raw/branch/master/XC.json",
            "name": "⛵️XC接口"
        },
        {
            "url": "http://111.67.196.181/mtv/meow.txt",
            "name": "🌇小太阳"
        },
        {
            "url": "https://download.kstore.space/download/2863/01.txt",
            "name": "🔮潇洒"
        },
        {
            "url": "https://freed.yuanhsing.cf/TVBox/meowcf.json",
            "name": "🎀元兴"
        },
        {
            "url": "http://000913.xyz/box/tv.json",
            "name": "🍆源共享"
        },
        {
            "url": "https://raw.liucn.cc/box/m.json",
            "name": "🦀刘刘"
        },
        {
            "url": "https://raw.iqiq.io/kebedd69/TVbox-interface/main/甜蜜.json",
            "name": "🖼甜蜜暴击"
        },
        {
            "url": "http://52bsj.vip:98/wuai",
            "name": "🐍五爱"
        },
        {
            "url": "https://share.nite07.com/api/v3/file/source/13485/0716.txt?sign=dxhV79Bv7z8Dc-UIC75rWZ50Z1qFYUJxqOwaBsKhKQU=:0",
            "name": "🍆源共享2"
        },
        {
            "url": "https://agit.ai/66666/mao/raw/branch/master/00/%E8%87%AA%E7%94%A8.jpg",
            "name": "📮6666源"
        },
        {
            "url": "https://agit.ai/66666/mao/raw/branch/master/00/000.m3u8",
            "name": "🍱6666源共享"
        },
        {
            "url": "https://agit.ai/n/b/raw/branch/a/b/c.json",
            "name": "🍧ABC接口"
        },
        {
            "url": "https://ju.binghe.ga/4.txt",
            "name": "🍦冰河"
        },
        {
            "url": "https://agit.ai/376242575/zzh/raw/branch/master/A.txt ",
            "name": "🏝🌈私人影院"
        },
        {
            "url": "https://agit.ai/Jonwall/Box/raw/branch/a/T20.json",
            "name": "🧞二刀"
        },
        {
            "url": "http://js.134584.xyz/json/pp87.json",
            "name": "🌴三刀"
        },
        {
            "url": "https://freed.yuanhsing.cf/TVBox/meowcf.json",
            "name": "☂四刀"
        },
        {
            "url": "https://dxawi.github.io/0/0.json",
            "name": "🚴🏻五刀"
        },
        {
            "url": "http://52bsj.vip:81/api/v3/file/get/46060/Tv%20box%E6%BA%902.txt?sign=yI8sCYT8pei-pxp1_xwLjWOfepQ9b7c1y6Q_QD_0RY4%3D%3A0",
            "name": "🏓魔力宝贝"
        },
        {
            "url": "http://js.134584.xyz/json/pp87.json",
            "name": "🥦白嫖大王"
        },
        {
            "url": "https://raw.iqiq.io/liu673cn/box/main/m.json",
            "name": "🍉牛魔指王"
        },
        {
            "url": "https://神器每日推送.tk/pz.json",
            "name": "🍒神器一号"
        },
        {
            "url": "http://miaotvs.cn/osc",
            "name": "🌤太阳之神"
        },
        {
            "url": "https://agit.ai/Yoursmile7/TVBox/raw/branch/master/XC.json",
            "name": "🍓一帆风顺"
        },
        {
            "url": "http://刚刚.live/猫",
            "name": "🍟刚刚猫"
        },
        {
            "url": "http://maoyingshi.cc/tvbox/云星日记/1.m3u8",
            "name": "🖼云星一号"
        },
        {
            "url": "http://maoyingshi.cc/tvbox/云星日记/bili.json",
            "name": "🛎云星听歌"
        },
        {
            "url": "http://maoyingshi.cc/tvbox/云星日记/ali.m3u8",
            "name": "🎱云云搜索"
        },
        {
            "url": "http://52bsj.vip:81/api/v3/file/get/29899/box2.json?sign=3cVyKZQr3lFAwdB3HK-A7h33e0MnmG6lLB9oWlvSNnM%3D%3A0",
            "name": "⛵️月光宝盒Box"
        },
        {
            "url": "https://agit.ai/376242575/zzh/raw/branch/master/txt/影视.txt ",
            "name": "🦊人人影视"
        },
        {
            "url": "https://agit.ai/376242575/zzh/raw/branch/master/txt/影视1.txt ",
            "name": "🐦人人影视1"
        },
        {
            "url": "https://agit.ai/376242575/zzh/raw/branch/master/txt/影视2.txt ",
            "name": "🐍人人影视2"
        },
        {
            "url": "https://agit.ai/376242575/zzh/raw/branch/master/txt/影视3.txt ",
            "name": "🦀人人影视3"
        },
        {
            "url": "https://agit.ai/376242575/zzh/raw/branch/master/txt/影视4.txt ",
            "name": "🌳人人影视4"
        },
        {
            "url": "https://agit.ai/376242575/zzh/raw/branch/master/txt/影视5.txt ",
            "name": "🍆人人影视5"
        },
        {
            "url": "https://agit.ai/376242575/zzh/raw/branch/master/txt/影视6.txt",
            "name": "🍇人人影视6"
        },
        {
            "url": "https://agit.ai/376242575/zzh/raw/branch/master/txt/影视7.txt ",
            "name": "🥞人人影视7"
        },
        {
            "url": "https://agit.ai/376242575/zzh/raw/branch/master/txt/%e6%95%99%e8%82%b2%ef%b9%a0%e6%95%99%e7%a8%8b.txt ",
            "name": "🍚学习教育课堂"
        },
        {
            "url": "https://agit.ai/376242575/zzh/raw/branch/master/txt/%e4%bd%93%e8%82%b2%ef%b9%a0%e7%9b%b4%e6%92%ad.txt ",
            "name": "🏀体育直播"
        },
        {
            "url": "https://agit.ai/376242575/zzh/raw/branch/master/%e4%bc%91%e9%97%b2%e7%bb%bc%e8%89%ba.txt ",
            "name": "🎮休闲戏曲娱乐"
        },
        {
            "url": "https://agit.ai/376242575/zzh/raw/branch/master/美食.txt ",
            "name": "🍭美食大全"
        },
        {
            "url": "https://agit.ai/hu/hcr/raw/branch/master/1012.txt",
            "name": "🌹花花世界"
        },
        {
            "url": "https://raw.iqiq.io/liu673cn/box/main/m.json",
            "name": "👙V线路1"
        },
        {
            "url": "https://cdn.jsdelivr.net/gh/liu673cn/box@main/m.json",
            "name": "🔍V线路2"
        },
        {
            "url": "https://agit.ai/Yoursmile7/TVBox/raw/branch/master/XC.json",
            "name": "🎈V线路3"
        },
        {
            "url": "https://dxawi.github.io/0/0.json",
            "name": "🐰V线路4"
        },
        {
            "url": "https://ju.binghe.ga/4.txt",
            "name": "🦆线路1"
        },
        {
            "url": "https://agit.ai/1357712527/tvbox/raw/branch/master/TVBoxx.json",
            "name": "🧞线路2"
        },
        {
            "url": "https://agit.ai/zbweb/TVBOX/raw/branch/master/json/bcnet.json",
            "name": "🧞线路3"
        },
        {
            "url": "https://agit.ai/mmmgit/tvbox/raw/branch/main/zzz1.json",
            "name": "🧞线路4"
        },
        {
            "url": "https://agit.ai/Gaytime/CC/raw/branch/master/1024.txt",
            "name": "🐤线路5"
        },
        {
            "url": "http://js.134584.xyz/json/pp87.json",
            "name": "🐤线路6"
        },
        {
            "url": "https://download.kstore.space/download/2863/01.txt",
            "name": "🐤线路7"
        },
        {
            "url": "http://9xi4o.tk/0725.json",
            "name": "🐤线路8"
        },
        {
            "url": "https://agit.ai/fenwe/TVBox/raw/branch/master/Box.json",
            "name": "🐤线路9"
        },
        {
            "url": "http://dxawi.github.io/0/0.json",
            "name": "🐤线路10"
        },
        {
            "url": "https://agit.ai/767820774/h/raw/branch/master/mao3",
            "name": "🐤线路11"
        },
        {
            "url": "https://out.zxglife.top/down.php/05ad8a16e71ebb56b4ff3d719ab3963f.txt&zn777",
            "name": "🐤线路12"
        },
        {
            "url": "https://share.nite07.com/api/v3/file/source/13485/0716.txt?sign=dxhV79Bv7z8Dc-UIC75rWZ50Z1qFYUJxqOwaBsKhKQU=:0",
            "name": "💒线路13"
        },
        {
            "url": "http://43.139.29.179:5705/config/1",
            "name": "💒线路14"
        },
        {
            "url": "http://52bsj.vip:81/api/v3/file/get/46060/Tv%20box%E6%BA%902.txt?sign=yI8sCYT8pei-pxp1_xwLjWOfepQ9b7c1y6Q_QD_0RY4%3D%3A0",
            "name": "💒线路15"
        },
        {
            "url": "https://agit.ai/zqk219/baip/raw/branch/master/tv.json",
            "name": "💒线路16"
        },
        {
            "url": "https://agit.ai/zzzlllmmm1/TVBox-1/raw/branch/main/sc.json",
            "name": "💒线路17"
        },
        {
            "url": "https://agit.ai/767820774/ziyong2/raw/branch/master/33.txt",
            "name": "💒线路18"
        },
        {
            "url": "https://agit.ai/767820774/mao666/raw/branch/master/json/自用.json",
            "name": "💒线路19"
        },
        {
            "url": "http://52bsj.vip:98/wuai",
            "name": "💒线路20"
        },
        {
            "url": "https://0a.fit/X000",
            "name": "💒线路21"
        },
        {
            "url": "http://52bsj.vip:81/api/v3/file/get/41063/bili.json?sign=TxuApYZt6bNl9TzI7vObItW34UnATQ4RQxABAEwHst4%3D%3A0",
            "name": "线路22"
        },
        {
            "url": "https://ghproxy.com/https://raw.githubusercontent.com/chengxueli818913/maoTV/main/44.txt",
            "name": "线路23"
        },
        {
            "url": "https://raw.liucn.cc/box/m.json",
            "name": "线路24"
        },
        {
            "url": "http://home.jundie.top:81/TVBox/yosakoi.json",
            "name": "线路25"
        },
        {
            "url": "http://xn--4bra.live/%E7%8C%AB",
            "name": "线路26"
        },
        {
            "url": "http://c.nxw.so/6Jvi4",
            "name": "线路27"
        },
        {
            "url": "http://wp.anxwl.cn/down.php/279a2174e2ba2f0d34002af90e94ec2e.txt&zn777",
            "name": "线路28"
        },
        {
            "url": "http://0454dt.com/tvbox",
            "name": "线路29"
        },
        {
            "url": "http://maoyingshi.cc/tvbox/%E4%BA%91%E6%98%9F%E6%97%A5%E8%AE%B0/1.m3u8",
            "name": "线路30"
        },
        {
            "url": "https://raw.githubusercontent.com/chengxueli818913/TVBox/main/sc.json",
            "name": "线路31"
        },
        {
            "url": "https://od.lk/d/MThfMzYzOTY5MTFf/XC.txt",
            "name": "线路32"
        },
        {
            "url": "http://152.136.125.181:81/MM/dianbos/xianlu00.json",
            "name": "线路33"
        },
        {
            "url": "http://152.136.125.181:81/MM/dianbos/junbujianPro.json",
            "name": "线路34"
        },
        {
            "url": "http://152.136.125.181:81/MM/dianbos/zhoushijie.json",
            "name": "线路35"
        },
        {
            "url": "http://152.136.125.181:81/MM/dianbos/yeshijieB.json",
            "name": "线路36"
        },
        {
            "url": "http://120.53.102.254/tvb/",
            "name": "线路37"
        },
        {
            "url": "http://刚刚.live/猫.json",
            "name": "线路38"
        },
        {
            "url": "http://maoyingshi.cc/tvbox/云星日记/ali.m3u8",
            "name": "线路39"
        },
        {
            "url": "https://0dlj.cn/丰富点",
            "name": "线路40"
        },
        {
            "url": "https://agit.ai/66666/mao/raw/branch/master/00/000.m3u8",
            "name": "线路41"
        },
        {
            "url": "https://agit.ai/66666/mao/raw/branch/master/00/999.m3u8",
            "name": "线路42"
        },
        {
            "url": "https://raw.fastgit.org/liu673cn/box/main/m.json",
            "name": "线路43"
        },
        {
            "url": "https://agit.ai/nbwzlyd/xiaopingguo/raw/branch/master/xiaopingguo/xiaopingguo.json",
            "name": "线路44"
        },
        {
            "url": "https://pastebin.com/raw/FSLJXZN5",
            "name": "线路45"
        },
        {
            "url": "http://xn--4bra.live/猫",
            "name": "线路46"
        },
        {
            "url": "http://刚刚.live/A佬",
            "name": "线路47"
        },
        {
            "url": "http://xn--4bra.live/A佬",
            "name": "线路48"
        },
        {
            "url": "https://raw.fastgit.org/hjcmcn/z/main/16.json",
            "name": "线路49"
        },
        {
            "url": "https://raw.fastgit.org/chengxueli818913/maoTV/main/33.txt",
            "name": "线路50"
        },
        {
            "url": "http://api.xiaoz.fit/1.json",
            "name": "线路51"
        },
        {
            "url": "https://gitee.com/jjjsndjdjjjjd/tv-storage/raw/master/tv.txt",
            "name": "线路52"
        },
        {
            "url": "https://84k.cn/tvmao",
            "name": "线路53"
        },
        {
            "url": "https://www.fastmock.site/mock/1d52adb084c96725525077ce7380de4c/tv/bd",
            "name": "线路54"
        },
        {
            "url": "https://dlj2.cn/星辰影视",
            "name": "线路55"
        },
        {
            "url": "https://dlj2.cn/77",
            "name": "线路56"
        },
        {
            "url": "https://dlj2.cn/自用",
            "name": "线路57"
        },
        {
            "url": "https://dlj2.cn/ch",
            "name": "线路58"
        },
        {
            "url": "https://cdn.staticaly.com/gh/liu673cn/box/main/m.json",
            "name": "线路59"
        },
        {
            "url": "https://freed.yuanhsing.cf/TVBox/meowcf.json",
            "name": "线路60"
        },
        {
            "url": "https://github.com/YuanHsing/freed/raw/master/TVBox/meow.json",
            "name": "线路61"
        },
        {
            "url": "https://liu673cn.github.io/box/m.json",
            "name": "线路62"
        },
        {
            "url": "http://52bsj.vip:81/api/v3/file/get/29899/box2.json?sign=3cVyKZQr3lFAwdB3HK-A7h33e0MnmG6lLB9oWlvSNnM%3D%3A0",
            "name": "线路63"
        },
        {
            "url": "https://e40.cn/yyds",
            "name": "线路64"
        },
        {
            "url": "https://agit.ai/Yoursmile7/TVBox/raw/branch/master/XC.json",
            "name": "线路65"
        },
        {
            "url": "https://maoyingshi.cc/tvbox/云星日记/1.m3u8",
            "name": "线路66"
        },
        {
            "url": "https://agit.ai/lsk617/y/raw/branch/master/X.json",
            "name": "线路67"
        },
        {
            "url": "https://raw.iqiq.io/kebedd69/TVbox-interface/main/甜蜜.json",
            "name": "线路68"
        },
        {
            "url": "https://raw.fastgit.org/once678/looktv/main/tvbox8.json",
            "name": "线路69"
        },
        {
            "url": "https://raw.iqiq.io/kebedd69/TVbox-interface/main/%E7%94%9C%E8%9C%9C.json",
            "name": "线路70"
        },
        {
            "url": "http://120.53.102.254/tvb",
            "name": "线路71"
        },
        {
            "url": "https://agit.ai/leevi/apps/raw/branch/main/debug.json",
            "name": "线路72"
        },
        {
            "url": "https://demo.ifile.space/sdown/CXaaQlrMYw/391b50fc4bcded73f3fa72e16b015586ca3203ed/%E6%B5%8B%E8%AF%95ifile_9.16.txt",
            "name": "线路73"
        },
        {
            "url": "https://agit.ai/66666/mao/raw/commit/594f59504412e4ea234d9091dc86a5e0390a80eb/00/999.m3u8",
            "name": "线路74"
        },
        {
            "url": "http://47.242.90.42:8888/down/BJZPa8THuiE9",
            "name": "线路75"
        },
        {
            "url": "https://dxawi.github.io/0/0.json",
            "name": "线路76"
        },
        {
            "url": "http://刚刚.live/猫",
            "name": "线路77"
        },
        {
            "url": "https://0a.fit/自用",
            "name": "线路78"
        },
        {
            "url": "https://freetvbox.ml/api/qy.txt",
            "name": "线路79"
        },
        {
            "url": "https://out.zxglife.top/down.php/5da920895444ba485dde96b5425b8a67.txt",
            "name": "线路80"
        },
        {
            "url": "https://ghproxy.com/https://raw.githubusercontent.com/liu673cn/box/main/m.json",
            "name": "线路81"
        },
        {
            "url": "http://miaotvs.cn/osc",
            "name": "线路82"
        },
        {
            "url": "https://agit.ai/xx03253/xxu/raw/branch/main/xxtv.json",
            "name": "线路83"
        },
        {
            "url": "https://agit.ai/hu/hcr/raw/branch/master/MMM.txt",
            "name": "线路84"
        },
        {
            "url": "https://pastebin.com/raw/RAHbbAVa",
            "name": "线路85"
        },
        {
            "url": "https://ygyzy.github.io/api/box/box.json",
            "name": "线路86"
        },
        {
            "url": "https://cdn.staticaly.com/gh/XuQqu/PinkBird/main/normal.json",
            "name": "线路87"
        },
        {
            "url": "http://maoyingshi.cc/tvbox/云星日记/bili.json",
            "name": "线路88"
        },
        {
            "url": "https://maoyingshi.cc/tvbox/云星日记/ali.m3u8",
            "name": "线路89"
        },
        {
            "url": "https://maoyingshi.cc/tvbox/云星日记/bili.json",
            "name": "线路90"
        },
        {
            "url": "https://agit.ai/n/b/raw/branch/a/b/c.json",
            "name": "线路91"
        },
        {
            "url": "https://raw.iqiq.io/liu673cn/box/main/m.json",
            "name": "线路92"
        },
        {
            "url": "http://maoyingshi.cc/tvbox/云星日记/1.m3u8",
            "name": "线路93"
        },
        {
            "url": "http://www.dmtv.ml/mao/single.json",
            "name": "线路94"
        },
        {
            "url": "http://43.139.29.179:5705/config/2",
            "name": "线路95"
        },
        {
            "url": "https://0a.fit/8888",
            "name": "线路96"
        },
        {
            "url": "https://0a.fit/2222",
            "name": "线路97"
        },
        {
            "url": "http://52bsj.vip:98/sansan",
            "name": "线路98"
        },
        {
            "url": "http://52bsj.vip:98/6l",
            "name": "线路99"
        },
        {
            "url": "http://52bsj.vip:98/92",
            "name": "线路100"
        },
        {
            "url": "https://0a.fit/CuSJy",
            "name": "线路101"
        },
        {
            "url": "http://52bsj.vip:98/wuai",
            "name": "🐰吾"
        },
        {
            "url": "http://maoyingshi.cc/tvbox/%E4%BA%91%E6%98%9F%E6%97%A5%E8%AE%B0/1.m3u8",
            "name": "🐼猫影TV盒"
        },
        {
            "url": "https://gitcode.net/kuukey/a/-/raw/master/0.json",
            "name": "🍘gitcode/kuukry"
        },
        {
            "url": "http://maoyingshi.cc/tvbox/云星日记/ali.m3u8",
            "name": "🐅云星阿里"
        },
        {
            "url": "https://agit.ai/hu/hcr/raw/branch/master/29333.txt",
            "name": "👙猫不吃鱼"
        },
        {
            "url": "http://47.242.90.42:8888/down/BJZPa8THuiE9",
            "name": "🐰星辰"
        },
        {
            "url": "https://www.fastmock.site/mock/1d52adb084c96725525077ce7380de4c/tv/bd",
            "name": "💒BD线路"
        },
        {
            "url": "https://raw.fastgit.org/zhanghong1983/TVBOXZY/main/%E8%A7%82%E5%BD%B1TV/gfjt.json",
            "name": "🛣家庭线路",
            "time": "2022-08-26 02:00:00"
        },
        {
            "url": "http://miaotvs.cn/osc",
            "name": "🛣白嫖1"
        },
        {
            "url": "https://agit.ai/n/b/raw/branch/a/b/c.json",
            "name": "🐰白嫖2"
        },
        {
            "url": "https://out.zxglife.top/down.php/5da920895444ba485dde96b5425b8a67.txt",
            "name": "🐰白嫖3"
        },
        {
            "url": "http://52bsj.vip:81/api/v3/file/get/29899/box2.json?sign=3cVyKZQr3lFAwdB3HK-A7h33e0MnmG6lLB9oWlvSNnM%3D%3A0",
            "name": "月光宝盒Box线路"
        },
        {
            "url": "http://miaotvs.cn/osc",
            "name": "🥏喵TV"
        },
        {
            "url": "https://pan.tenire.com/down.php/2664dabf44e1b55919f481903a178cba.txt",
            "name": "👙showbox"
        },
        {
            "url": "https://download.kstore.space/download/2863/01.txt",
            "name": "👙懒人影视1"
        },
        {
            "url": "http://刚刚.live/猫",
            "name": "👙懒人影视2"
        },
        {
            "url": "https://agit.ai/zzzgit/zzz/raw/branch/main/proxxx.json",
            "name": "⛸懒人影视3🏹"
        },
        {
            "url": "http://miaotvs.cn/osc",
            "name": "👙懒人影视4"
        },
        {
            "url": "https://0a.fit/X000",
            "name": "👙懒人影视5"
        },
        {
            "url": "https://0a.fit/7777/",
            "name": "👙懒人影视6"
        },
        {
            "url": "https://apis.fanyeyun.com/down.php/2664dabf44e1b55919f481903a178cba.txt",
            "name": "👙懒人影院7"
        },
        {
            "url": "https://share.nite07.com/api/v3/file/source/13485/0716.txt?sign=dxhV79Bv7z8Dc-UIC75rWZ50Z1qFYUJxqOwaBsKhKQU=:0",
            "name": "🐰猫影视Pro( 823)"
        },
        {
            "url": "http://s.nxw.so/vip",
            "name": "💍自用1",
            "time": "2022-08-26 02:00:00"
        },
        {
            "url": "https://84k.cn/tvmao",
            "name": "💍自用2",
            "time": "2022-08-26 02:00:00"
        },
        {
            "url": "http://52bsj.vip:98/9c",
            "name": "💍自用3",
            "time": "2022-08-26 02:00:00"
        },
        {
            "url": "https://0a.fit/X000",
            "name": "🐰家庭版",
            "time": "2022-08-26 02:00:00"
        },
        {
            "url": "https://raw.iqiq.io/liu673cn/box/main/m.json",
            "name": "🐰家庭版备用",
            "time": "2022-08-26 02:00:00"
        },
        {
            "url": "http://刚刚.live/猫.json",
            "name": "🐰刚刚走过",
            "time": "2022-08-26 02:00:00"
        },
        {
            "url": "https://0a.fit/7777",
            "name": "🐰777",
            "time": "2022-08-26 02:00:00"
        },
        {
            "url": "https://pic.stackoverflow.wiki/uploadImages/122/140/12/253/2022/08/28/19/53/49035532-8b9e-43b2-8c0c-be1c0908f1c5.jpg",
            "name": "🐎VIP影视"
        },
        {
            "url": "https://raw.fastgit.org/zhanghong1983/TVBOXZY/main/%E8%A7%82%E5%BD%B1TV/gfjt.json",
            "name": "白嫖"
        },
        {
            "url": "http://52bsj.vip:81/api/v3/file/get/29899/box2.json?sign=3cVyKZQr3lFAwdB3HK-A7h33e0MnmG6lLB9oWlvSNnM%3D%3A0",
            "name": "月光宝盒Box"
        },
        {
            "url": "https://0dlj.cn/丰富点",
            "name": "简单",
            "time": "2022-08-26 02:00:00"
        },
        {
            "url": "https://gitea.com/wlyzh88/0627/raw/branch/master/0627.json",
            "name": "wlyzh88",
            "time": "2022-08-26 02:00:00"
        },
        {
            "url": "https://gitea.com/wlyzh88/MV/raw/branch/master/MV.json",
            "name": "wlyzh88MV",
            "time": "2022-08-26 02:00:00"
        },
        {
            "url": "http://mtw.so/6cfhxt",
            "name": "suanjin",
            "time": "2022-08-26 02:00:00"
        },
        {
            "url": "https://agit.ai/txcgb/TVBOXZY/raw/branch/main/18.json",
            "name": "🌈18🌈"
        },
        {
            "url": "https://agit.ai/txcgb/TVBox/raw/branch/master/wpro18.json",
            "name": "🌈wpro18🌈"
        },
        {
            "url": "http://118.107.41.200:8888/down/5jjLeRDhRj26",
            "name": "app里提取"
        }
    ],
    "vip": [
        {
            "url": "http://tvmvip110.live/down.php/8ee484fd7b6d3a8eb9b0005f43d68175.txt",
            "name": "68175.txt"
        },
        {
            "url": "http://152.136.125.181:81/MM/dianbos/yeshijieC.json",
            "name": "yeshijieC.json"
        },
        {
            "url": "http://52bsj.vip:81/api/v3/file/get/29908/18.json?sign=6dFDJtF30CNlCiznjsQmwbsUbxdtz9edLVjbDc5lC8E%3D%3A0",
            "name": "月光福利"
        },
        {
            "url": "http://mtw.so/5PGEEm",
            "name": "houxian福利",
            "time": "2022-08-26 02:00:00"
        },
        {
            "url": "https://gitea.com/wlyzh88/FL/raw/branch/master/FL.json",
            "name": "wlyz88FL",
            "time": "2022-08-26 02:00:00"
        },
        {
            "url": "http://tvmvip110.live/down.php/0a20c53b3c39b42d21482b2597943bc7.txt",
            "name": "943bc7.txt"
        }
    ]
}